{
  "variables": {
      "boot_wait": "5s",
      "disk_size": "40960",
      "iso_url": "rhel-8.3-x86_64-dvd.iso",
      "iso_checksum": "30fd8dff2d29a384bd97886fa826fa5be872213c81e853eae3f9d9674f720ad0",
      "memsize": "1024",
      "numvcpus": "1",
      "ssh_password" : "packer",
      "ssh_username" : "packer",
      "vm_name": "redhat-8.3-x86_64"
    },
    "builders": [
      {
        "type": "qemu",
        "boot_command": [
          "<tab><bs><bs><bs><bs><bs>text ks=http://{{ .HTTPIP }}:{{ .HTTPPort }}/ks.cfg<enter><wait>"
        ],
        "boot_wait": "{{ user `boot_wait` }}",
        "disk_size": "{{ user `disk_size` }}",
        "headless": false,
        "http_directory": "http",
        "iso_url": "{{ user `iso_url` }}",
        "iso_checksum": "{{ user `iso_checksum` }}",
        "shutdown_command": "echo 'packer'|sudo -S /sbin/halt -h -p",
        "ssh_password": "{{ user `ssh_password` }}",
        "ssh_port": 22,
        "ssh_username": "{{ user `ssh_username` }}",
        "ssh_timeout": "30m",
        "vm_name": "{{ user `vm_name` }}",
        "net_device": "virtio-net",
        "disk_interface": "virtio",
        "accelerator": "kvm",
        "cpus": "4",
        "memory": "4096"
      }
    ]
}
